Mapping & Clustering 311 Complaints for City Services – PA 446 Final Project – 311 Clustering
…
Warning: package 'janitor' was built under R version 4.5.2

Warning: package 'naniar' was built under R version 4.5.2

Step 2: Read raw_311.csv and clean the data...

Warning: One or more parsing issues, call `problems()` on your data frame for details,
e.g.:
  dat <- vroom(...)
  problems(dat)

The community × type matrix has been saved to data/ca_type_matrix.csv

# A tibble: 77 × 11
   community_area `311 INFORMATION ONLY CALL` `Abandoned Vehicle Complaint`
            <int>                       <int>                         <int>
 1              1                           2                            17
 2              2                           1                            18
 3              3                           3                            11
 4              4                           2                            14
 5              5                           2                            11
 6              6                           4                            15
 7              7                           5                             5
 8              8                           3                             2
 9              9                           0                             4
10             10                           2                            12
# ℹ 67 more rows
# ℹ 8 more variables: `Blue Recycling Cart` <int>,
#   `Garbage Cart Maintenance` <int>, `Graffiti Removal Request` <int>,
#   `Pothole in Street Complaint` <int>, `Rodent Baiting/Rat Complaint` <int>,
#   `Street Light Out Complaint` <int>,
#   `Tree Trim Request (NO LONGER BEING ACCEPTED)` <int>,
#   `Aircraft Noise Complaint` <int>
…
The clustering results have been saved to data/ca_clustered.csv

# A tibble: 77 × 12
   community_area `311 INFORMATION ONLY CALL` `Abandoned Vehicle Complaint`
            <dbl>                       <dbl>                         <dbl>
 1              1                           2                            17
 2              2                           1                            18
 3              3                           3                            11
 4              4                           2                            14
 5              5                           2                            11
 6              6                           4                            15
 7              7                           5                             5
 8              8                           3                             2
 9              9                           0                             4
10             10                           2                            12
# ℹ 67 more rows
# ℹ 9 more variables: `Blue Recycling Cart` <dbl>,
#   `Garbage Cart Maintenance` <dbl>, `Graffiti Removal Request` <dbl>,
#   `Pothole in Street Complaint` <dbl>, `Rodent Baiting/Rat Complaint` <dbl>,
#   `Street Light Out Complaint` <dbl>,
#   `Tree Trim Request (NO LONGER BEING ACCEPTED)` <dbl>,
#   `Aircraft Noise Complaint` <dbl>, cluster <fct>
…
